job_title,salary_exact,name,city_name,zipcode,state,population,country
Uber Driving Partner - Independent Contractor,193850.0,Chief Executives,big rock,60511,IL,1793,US
Uber Driving Partner - Independent Contractor,193850.0,Chief Executives,cleveland,44132,OH,14071,US
Uber Driving Partner - Independent Contractor,193850.0,Chief Executives,dublin,43017,OH,37626,US
Uber Driving Partner - Independent Contractor,193850.0,Chief Executives,jersey city,07032,NJ,16769,US
Uber Driving Partner - Independent Contractor,193850.0,Chief Executives,los angeles,93552,CA,38158,US
Uber Driving Partner - Independent Contractor,193850.0,Chief Executives,los angeles,90731,CA,59662,US
Uber Driving Partner - Independent Contractor,193850.0,Chief Executives,nashville,37206,TN,25699,US
Uber Driving Partner - Independent Contractor,193850.0,Chief Executives,new orleans,70128,LA,17113,US
Uber Driving Partner - Independent Contractor,193850.0,Chief Executives,altamonte springs,32701,FL,21577,US
Uber Driving Partner - Independent Contractor,193850.0,Chief Executives,rocky point,33634,FL,20225,US
Uber Driving Partner - Independent Contractor,193850.0,Chief Executives,fresno,93701,CA,12529,US
Uber Driving Partner - Independent Contractor,193850.0,Chief Executives,wakefield,23888,VA,2275,US
Uber Driving Partner - Independent Contractor,193850.0,Chief Executives,waterloo,,Ontario,-1,US
Uber Driving Partner - Independent Contractor,193850.0,Chief Executives,fort macleod,,Alberta,-1,US
Uber Driving Partner - Independent Contractor,193850.0,Chief Executives,satsop,98583,WA,124,US
Uber Driving Partner - Independent Contractor,193850.0,Chief Executives,wilmington,28411,NC,31962,US
Uber Driving Partner - Independent Contractor,193850.0,Chief Executives,wilmington,28405,NC,29152,US
Uber Driving Partner - Independent Contractor,193850.0,Chief Executives,log lane village,80705,CO,884,US
Uber Driving Partner - Independent Contractor,193850.0,Chief Executives,whiteman air force base,,MO,-1,US
Uber Driving Partner - Independent Contractor,193850.0,Chief Executives,parkersburg,62452,IL,400,US
Uber Driving Partner - Independent Contractor,193850.0,Chief Executives,keytesville,65261,MO,1094,US
Uber Driving Partner - Independent Contractor,193850.0,Chief Executives,keystone,52249,IA,965,US
Uber Driving Partner - Independent Contractor,193850.0,Chief Executives,ackley,50601,IA,2464,US
Uber Driving Partner - Independent Contractor,193850.0,Chief Executives,varysburg,14167,NY,1663,US
Uber Driving Partner - Independent Contractor,193850.0,Chief Executives,north evans,14112,NY,85,US
Uber Driving Partner - Independent Contractor,193850.0,Chief Executives,west middleton,46995,IN,-1,US
Uber Driving Partner - Independent Contractor,193850.0,Chief Executives,moxahala,43761,OH,111,US
Uber Driving Partner - Independent Contractor,193850.0,Chief Executives,lehigh acres,33976,FL,-1,US
Uber Driving Partner - Independent Contractor,193850.0,Chief Executives,pensacola,32541,FL,15565,US