<svg xmlns="http://www.w3.org/2000/svg" xmlns:xlink="http://www.w3.org/1999/xlink" width="53" height="53" viewBox="0 0 53 53">
  <defs>
    <filter id="Ellipse_1" x="0" y="0" width="53" height="53" filterUnits="userSpaceOnUse">
      <feOffset dy="3" input="SourceAlpha"/>
      <feGaussianBlur stdDeviation="3" result="blur"/>
      <feFlood flood-opacity="0.161"/>
      <feComposite operator="in" in2="blur"/>
      <feComposite in="SourceGraphic"/>
    </filter>
  </defs>
  <g id="Group_3218" data-name="Group 3218" transform="translate(-157 -1388)">
    <g transform="matrix(1, 0, 0, 1, 157, 1388)" filter="url(#Ellipse_1)">
      <circle id="Ellipse_1-2" data-name="Ellipse 1" cx="17.5" cy="17.5" r="17.5" transform="translate(9 6)" fill="#8db0cf"/>
    </g>
    <path id="XMLID_225_" d="M15.788,75.213a.727.727,0,0,0-1.029,0L8,81.972,1.242,75.213A.727.727,0,0,0,.214,76.242l7.273,7.273a.727.727,0,0,0,1.028,0l7.273-7.273A.727.727,0,0,0,15.788,75.213Z" transform="translate(262.727 1404) rotate(90)" fill="#fff"/>
  </g>
</svg>
