<svg xmlns="http://www.w3.org/2000/svg" width="33.791" height="35" viewBox="0 0 33.791 35">
  <path id="search" d="M34.261,31.879l-8.33-8.664a14.126,14.126,0,1,0-10.816,5.047,13.98,13.98,0,0,0,8.1-2.557L31.6,34.435a1.843,1.843,0,1,0,2.657-2.555ZM15.115,3.686A10.445,10.445,0,1,1,4.67,14.131,10.457,10.457,0,0,1,15.115,3.686Z" transform="translate(-0.984)" fill="#0086ff"/>
</svg>
